EESchema Schematic File Version 2
LIBS:power
LIBS:MyKiCadLibs-Lib
LIBS:DAC-ADAU1966-cache
EELAYER 25 0
EELAYER END
$Descr A4 11693 8268
encoding utf-8
Sheet 2 5
Title "ADAU1966 DAC with Passive Output Filters"
Date "2016-05-25"
Rev "2.1"
Comp "Open Hardware DSP Platform - www.ohdsp.org"
Comment1 "MERCHANTABILITY, SATISFACTORY QUALITY AND FITNESS FOR A PARTICULAR PURPOSE."
Comment2 "is distributed WITHOUT ANY EXPRESS OR IMPLIED WARRANTY, INCLUDING OF "
Comment3 "Licensed under the TAPR Open Hardware License (www.tapr.org/OHL). This documentation"
Comment4 "Copyright Paul Janicki 2016"
$EndDescr
$Comp
L GNDD #PWR206
U 1 1 54E4C333
P 2000 4500
F 0 "#PWR206" H 2000 4250 60  0001 C CNN
F 1 "GNDD" H 2000 4350 60  0000 C CNN
F 2 "" H 2000 4500 60  0000 C CNN
F 3 "" H 2000 4500 60  0000 C CNN
	1    2000 4500
	1    0    0    -1  
$EndComp
$Comp
L GNDD #PWR204
U 1 1 54E3B83E
P 1800 3750
F 0 "#PWR204" H 1800 3500 60  0001 C CNN
F 1 "GNDD" H 1800 3600 60  0000 C CNN
F 2 "" H 1800 3750 60  0000 C CNN
F 3 "" H 1800 3750 60  0000 C CNN
	1    1800 3750
	-1   0    0    -1  
$EndComp
$Comp
L GNDD #PWR201
U 1 1 55002B18
P 1200 3750
F 0 "#PWR201" H 1200 3500 60  0001 C CNN
F 1 "GNDD" H 1200 3600 60  0000 C CNN
F 2 "" H 1200 3750 60  0000 C CNN
F 3 "" H 1200 3750 60  0000 C CNN
	1    1200 3750
	-1   0    0    -1  
$EndComp
Text HLabel 3400 3100 2    60   Output ~ 0
MCLK
Text Notes 8100 3000 0    118  ~ 0
SPI Connector
$Comp
L GNDD #PWR207
U 1 1 56363071
P 2000 6100
F 0 "#PWR207" H 2000 5850 60  0001 C CNN
F 1 "GNDD" H 2000 5950 60  0000 C CNN
F 2 "" H 2000 6100 60  0000 C CNN
F 3 "" H 2000 6100 60  0000 C CNN
	1    2000 6100
	1    0    0    -1  
$EndComp
$Comp
L GNDD #PWR205
U 1 1 5636307D
P 1800 5500
F 0 "#PWR205" H 1800 5250 60  0001 C CNN
F 1 "GNDD" H 1800 5350 60  0000 C CNN
F 2 "" H 1800 5500 60  0000 C CNN
F 3 "" H 1800 5500 60  0000 C CNN
	1    1800 5500
	-1   0    0    -1  
$EndComp
$Comp
L GNDD #PWR202
U 1 1 56363083
P 1200 5500
F 0 "#PWR202" H 1200 5250 60  0001 C CNN
F 1 "GNDD" H 1200 5350 60  0000 C CNN
F 2 "" H 1200 5500 60  0000 C CNN
F 3 "" H 1200 5500 60  0000 C CNN
	1    1200 5500
	-1   0    0    -1  
$EndComp
$Comp
L GNDD #PWR214
U 1 1 5636374B
P 5200 4350
F 0 "#PWR214" H 5200 4100 60  0001 C CNN
F 1 "GNDD" H 5200 4200 60  0000 C CNN
F 2 "" H 5200 4350 60  0000 C CNN
F 3 "" H 5200 4350 60  0000 C CNN
	1    5200 4350
	1    0    0    -1  
$EndComp
$Comp
L GNDD #PWR212
U 1 1 56363757
P 5000 3750
F 0 "#PWR212" H 5000 3500 60  0001 C CNN
F 1 "GNDD" H 5000 3600 60  0000 C CNN
F 2 "" H 5000 3750 60  0000 C CNN
F 3 "" H 5000 3750 60  0000 C CNN
	1    5000 3750
	-1   0    0    -1  
$EndComp
$Comp
L GNDD #PWR210
U 1 1 5636375D
P 4400 3750
F 0 "#PWR210" H 4400 3500 60  0001 C CNN
F 1 "GNDD" H 4400 3600 60  0000 C CNN
F 2 "" H 4400 3750 60  0000 C CNN
F 3 "" H 4400 3750 60  0000 C CNN
	1    4400 3750
	-1   0    0    -1  
$EndComp
$Comp
L GNDD #PWR215
U 1 1 56363863
P 5200 5750
F 0 "#PWR215" H 5200 5500 60  0001 C CNN
F 1 "GNDD" H 5200 5600 60  0000 C CNN
F 2 "" H 5200 5750 60  0000 C CNN
F 3 "" H 5200 5750 60  0000 C CNN
	1    5200 5750
	1    0    0    -1  
$EndComp
$Comp
L GNDD #PWR213
U 1 1 5636386F
P 5000 5150
F 0 "#PWR213" H 5000 4900 60  0001 C CNN
F 1 "GNDD" H 5000 5000 60  0000 C CNN
F 2 "" H 5000 5150 60  0000 C CNN
F 3 "" H 5000 5150 60  0000 C CNN
	1    5000 5150
	-1   0    0    -1  
$EndComp
$Comp
L GNDD #PWR211
U 1 1 56363875
P 4400 5150
F 0 "#PWR211" H 4400 4900 60  0001 C CNN
F 1 "GNDD" H 4400 5000 60  0000 C CNN
F 2 "" H 4400 5150 60  0000 C CNN
F 3 "" H 4400 5150 60  0000 C CNN
	1    4400 5150
	-1   0    0    -1  
$EndComp
Text HLabel 3400 3300 2    59   Output ~ 0
LRCLK
Text HLabel 3400 3500 2    59   Output ~ 0
BCLK
Text HLabel 3400 3700 2    59   Output ~ 0
SDATA1
Text HLabel 3050 5450 2    59   Output ~ 0
SDATA2
Text HLabel 6450 3700 2    59   Output ~ 0
SDATA3
Text HLabel 6550 5100 2    59   Output ~ 0
SDATA4
$Comp
L GNDD #PWR209
U 1 1 566A4AC1
P 2975 5550
F 0 "#PWR209" H 2975 5300 60  0001 C CNN
F 1 "GNDD" H 2975 5400 60  0000 C CNN
F 2 "" H 2975 5550 60  0000 C CNN
F 3 "" H 2975 5550 60  0000 C CNN
	1    2975 5550
	-1   0    0    -1  
$EndComp
$Comp
L GNDD #PWR216
U 1 1 5681505B
P 6250 3850
F 0 "#PWR216" H 6250 3600 60  0001 C CNN
F 1 "GNDD" H 6250 3700 60  0000 C CNN
F 2 "" H 6250 3850 60  0000 C CNN
F 3 "" H 6250 3850 60  0000 C CNN
	1    6250 3850
	1    0    0    -1  
$EndComp
$Comp
L GNDD #PWR217
U 1 1 5681564B
P 6250 5250
F 0 "#PWR217" H 6250 5000 60  0001 C CNN
F 1 "GNDD" H 6250 5100 60  0000 C CNN
F 2 "" H 6250 5250 60  0000 C CNN
F 3 "" H 6250 5250 60  0000 C CNN
	1    6250 5250
	1    0    0    -1  
$EndComp
$Comp
L GNDD #PWR203
U 1 1 568FFA7B
P 1750 2300
F 0 "#PWR203" H 1750 2050 60  0001 C CNN
F 1 "GNDD" H 1750 2150 60  0000 C CNN
F 2 "" H 1750 2300 60  0000 C CNN
F 3 "" H 1750 2300 60  0000 C CNN
	1    1750 2300
	-1   0    0    -1  
$EndComp
$Comp
L GNDD #PWR208
U 1 1 56999239
P 2050 2750
F 0 "#PWR208" H 2050 2500 60  0001 C CNN
F 1 "GNDD" H 2050 2600 60  0000 C CNN
F 2 "" H 2050 2750 60  0000 C CNN
F 3 "" H 2050 2750 60  0000 C CNN
	1    2050 2750
	-1   0    0    -1  
$EndComp
Text Notes 1200 1250 0    118  ~ 0
I2S/TDM Connectors
Text Notes 1200 1900 0    60   ~ 0
External MCLK
Text Notes 1200 1650 0    60   ~ 0
External I2S/TDM audio data. \nOnly 4 of the 8 SDATA lines are routed.\nMinimum input for 16 channels is 4 TDM4 data streams.\nStereo I2S gives 8 channels only.
Text HLabel 8600 3500 0    60   Input ~ 0
SPI_MISO
Text HLabel 8600 3600 0    60   Output ~ 0
SPI_SCLK
Text HLabel 8600 3700 0    60   Output ~ 0
SPI_MOSI
Text HLabel 8600 3800 0    60   Output ~ 0
SPI_SS
Text HLabel 8600 4000 0    60   Output ~ 0
GPIO
Text HLabel 8600 3900 0    60   Output ~ 0
RST
$Comp
L GNDD #PWR218
U 1 1 56F02E77
P 9950 4100
F 0 "#PWR218" H 9950 3850 60  0001 C CNN
F 1 "GNDD" H 9950 3950 60  0000 C CNN
F 2 "" H 9950 4100 60  0000 C CNN
F 3 "" H 9950 4100 60  0000 C CNN
	1    9950 4100
	-1   0    0    -1  
$EndComp
Wire Wire Line
	8750 4000 8600 4000
Wire Wire Line
	8600 3900 8750 3900
Wire Wire Line
	8750 3800 8600 3800
Wire Wire Line
	8600 3700 8750 3700
Wire Wire Line
	8750 3600 8600 3600
Wire Wire Line
	8600 3500 8750 3500
Wire Wire Line
	9950 3500 9950 4100
Wire Wire Line
	9950 4000 9850 4000
Wire Wire Line
	9850 3900 9950 3900
Connection ~ 9950 4000
Wire Wire Line
	9850 3800 9950 3800
Connection ~ 9950 3900
Wire Wire Line
	9850 3700 9950 3700
Connection ~ 9950 3800
Wire Wire Line
	9850 3600 9950 3600
Connection ~ 9950 3700
Wire Wire Line
	9850 3500 9950 3500
Connection ~ 9950 3600
Wire Wire Line
	9350 3500 9250 3500
Wire Wire Line
	9250 3600 9350 3600
Wire Wire Line
	9350 3700 9250 3700
Wire Wire Line
	9250 3800 9350 3800
Wire Wire Line
	9350 3900 9250 3900
Wire Wire Line
	9250 4000 9350 4000
Connection ~ 5200 5100
Connection ~ 2000 5450
Connection ~ 2450 3100
Connection ~ 2300 3300
Connection ~ 2150 3500
Connection ~ 2000 3700
Wire Wire Line
	2050 2750 2050 2650
Connection ~ 2050 2100
Wire Wire Line
	2050 2150 2050 2100
Connection ~ 1750 2200
Wire Wire Line
	1750 2200 1650 2200
Connection ~ 3150 3100
Wire Wire Line
	3150 2100 3150 3100
Wire Wire Line
	2700 2100 3150 2100
Wire Wire Line
	1650 2100 2200 2100
Wire Wire Line
	1750 2000 1750 2300
Wire Wire Line
	6250 4900 6250 5250
Wire Wire Line
	4950 4900 5250 4900
Wire Wire Line
	4950 4800 5250 4800
Wire Wire Line
	5250 4700 4950 4700
Connection ~ 5800 4800
Wire Wire Line
	5750 4700 5800 4700
Connection ~ 5800 4900
Wire Wire Line
	5800 4700 5800 4900
Wire Wire Line
	5750 4800 5800 4800
Wire Wire Line
	5750 4900 6250 4900
Connection ~ 5800 3400
Wire Wire Line
	5750 3300 5800 3300
Connection ~ 5800 3500
Wire Wire Line
	5800 3300 5800 3500
Wire Wire Line
	5750 3400 5800 3400
Wire Wire Line
	5750 3500 6250 3500
Wire Wire Line
	6250 3500 6250 3850
Wire Wire Line
	2450 3750 2450 3100
Connection ~ 2300 4400
Wire Wire Line
	2450 4400 2450 4250
Connection ~ 2750 5150
Wire Wire Line
	2700 5050 2750 5050
Connection ~ 2750 5250
Wire Wire Line
	2750 5050 2750 5250
Wire Wire Line
	2700 5150 2750 5150
Wire Wire Line
	2700 5250 2975 5250
Wire Wire Line
	2975 5250 2975 5550
Wire Wire Line
	2200 5250 1750 5250
Wire Wire Line
	1750 5050 2200 5050
Wire Wire Line
	1750 5150 2200 5150
Wire Wire Line
	5000 5100 5000 5150
Connection ~ 4400 4800
Wire Wire Line
	4400 4700 4450 4700
Connection ~ 4400 4900
Wire Wire Line
	4400 4800 4450 4800
Connection ~ 4400 5000
Wire Wire Line
	4400 4900 4450 4900
Connection ~ 4400 5100
Wire Wire Line
	4400 5000 4450 5000
Wire Wire Line
	4400 5100 4450 5100
Wire Wire Line
	4400 4700 4400 5150
Wire Wire Line
	5200 5650 5200 5750
Wire Wire Line
	5900 5100 6550 5100
Wire Wire Line
	4950 5000 5200 5000
Wire Wire Line
	5200 5000 5200 5150
Wire Wire Line
	5200 5100 5400 5100
Wire Wire Line
	5000 5100 4950 5100
Wire Wire Line
	5000 3700 5000 3750
Connection ~ 4400 3400
Wire Wire Line
	4400 3300 4450 3300
Connection ~ 4400 3500
Wire Wire Line
	4400 3400 4450 3400
Connection ~ 4400 3600
Wire Wire Line
	4400 3500 4450 3500
Connection ~ 4400 3700
Wire Wire Line
	4400 3600 4450 3600
Wire Wire Line
	4400 3700 4450 3700
Wire Wire Line
	4400 3300 4400 3750
Wire Wire Line
	5200 4250 5200 4350
Wire Wire Line
	5900 3700 6450 3700
Wire Wire Line
	5000 3700 4950 3700
Wire Wire Line
	1800 5450 1800 5500
Connection ~ 1200 5150
Wire Wire Line
	1200 5050 1250 5050
Connection ~ 1200 5250
Wire Wire Line
	1200 5150 1250 5150
Connection ~ 1200 5350
Wire Wire Line
	1200 5250 1250 5250
Connection ~ 1200 5450
Wire Wire Line
	1200 5350 1250 5350
Wire Wire Line
	1200 5450 1250 5450
Wire Wire Line
	1200 5050 1200 5500
Wire Wire Line
	2000 6000 2000 6100
Wire Wire Line
	2700 5450 3050 5450
Wire Wire Line
	1750 5350 2000 5350
Wire Wire Line
	2000 5350 2000 5500
Wire Wire Line
	2000 5450 2200 5450
Wire Wire Line
	1800 5450 1750 5450
Wire Wire Line
	3100 3100 3400 3100
Wire Wire Line
	1800 3700 1800 3750
Wire Wire Line
	1950 3100 2600 3100
Wire Wire Line
	1950 3300 1950 3100
Connection ~ 1200 3400
Wire Wire Line
	1200 3300 1250 3300
Connection ~ 1200 3500
Wire Wire Line
	1200 3400 1250 3400
Connection ~ 1200 3600
Wire Wire Line
	1200 3500 1250 3500
Connection ~ 1200 3700
Wire Wire Line
	1200 3600 1250 3600
Wire Wire Line
	1200 3700 1250 3700
Wire Wire Line
	1200 3300 1200 3750
Wire Wire Line
	2150 4250 2150 4400
Wire Wire Line
	2000 4400 2450 4400
Connection ~ 2000 4400
Wire Wire Line
	2300 4400 2300 4250
Connection ~ 2150 4400
Wire Wire Line
	2000 4250 2000 4500
Wire Wire Line
	3100 3700 3400 3700
Wire Wire Line
	2150 3750 2150 3500
Wire Wire Line
	3100 3500 3400 3500
Wire Wire Line
	3100 3300 3400 3300
Wire Wire Line
	1750 3400 2000 3400
Wire Wire Line
	2000 3400 2000 3300
Wire Wire Line
	2000 3300 2600 3300
Wire Wire Line
	1750 3500 2600 3500
Wire Wire Line
	1750 3600 2000 3600
Wire Wire Line
	2000 3600 2000 3750
Wire Wire Line
	2000 3700 2600 3700
Wire Wire Line
	1800 3700 1750 3700
Wire Wire Line
	1750 3300 1950 3300
Wire Wire Line
	2300 3300 2300 3750
$Comp
L CONN_02X05 P201
U 1 1 570D05E6
P 1500 3500
F 0 "P201" H 1500 3800 50  0000 C CNN
F 1 "CONN_02X05" H 1500 3200 50  0000 C CNN
F 2 "MyKiCadLibs-Footprints:CONN_DIL_2X5_BOX_1MM" H 1500 2300 60  0001 C CNN
F 3 "" H 1500 2300 60  0000 C CNN
F 4 "2x5 2.54mm pitch box header" H 1500 3100 40  0001 C CNN "Description"
	1    1500 3500
	1    0    0    -1  
$EndComp
$Comp
L CONN_02X05 P202
U 1 1 570D1346
P 1500 5250
F 0 "P202" H 1500 5550 50  0000 C CNN
F 1 "CONN_02X05" H 1500 4950 50  0000 C CNN
F 2 "MyKiCadLibs-Footprints:CONN_DIL_2X5_BOX_1MM" H 1500 4050 60  0001 C CNN
F 3 "" H 1500 4050 60  0000 C CNN
F 4 "2x5 2.54mm pitch box header" H 1500 4850 40  0001 C CNN "Description"
	1    1500 5250
	1    0    0    -1  
$EndComp
$Comp
L CONN_02X05 P203
U 1 1 570D21C1
P 4700 3500
F 0 "P203" H 4700 3800 50  0000 C CNN
F 1 "CONN_02X05" H 4700 3200 50  0000 C CNN
F 2 "MyKiCadLibs-Footprints:CONN_DIL_2X5_BOX_1MM" H 4700 2300 60  0001 C CNN
F 3 "" H 4700 2300 60  0000 C CNN
F 4 "2x5 2.54mm pitch box header" H 4700 3100 40  0001 C CNN "Description"
	1    4700 3500
	1    0    0    -1  
$EndComp
$Comp
L CONN_02X05 P204
U 1 1 570D240D
P 4700 4900
F 0 "P204" H 4700 5200 50  0000 C CNN
F 1 "CONN_02X05" H 4700 4600 50  0000 C CNN
F 2 "MyKiCadLibs-Footprints:CONN_DIL_2X5_BOX_1MM" H 4700 3700 60  0001 C CNN
F 3 "" H 4700 3700 60  0000 C CNN
F 4 "2x5 2.54mm pitch box header" H 4700 4500 40  0001 C CNN "Description"
	1    4700 4900
	1    0    0    -1  
$EndComp
$Comp
L CONN_02X06 P206
U 1 1 570D2B46
P 9600 3750
F 0 "P206" H 9600 4100 50  0000 C CNN
F 1 "CONN_02X06" H 9600 3400 50  0000 C CNN
F 2 "MyKiCadLibs-Footprints:CONN_DIL_2X6_BOX_1MM" H 9600 2550 60  0001 C CNN
F 3 "" H 9600 2550 60  0000 C CNN
F 4 "2x6 2.54mm pitch box header" H 9600 3300 40  0001 C CNN "Description"
	1    9600 3750
	-1   0    0    -1  
$EndComp
Wire Wire Line
	1750 2000 1650 2000
$Comp
L CONN_3x1 P205
U 1 1 570D3B81
P 1650 2000
F 0 "P205" V 2135 1795 40  0000 C CNN
F 1 "CONN_3x1" V 2080 1910 40  0000 C CNN
F 2 "MyKiCadLibs-Footprints:CONN_SIL_3_1MM" H 1990 1890 60  0001 C CNN
F 3 "" H 1990 1890 60  0000 C CNN
F 4 "1x3 2.54mm pitch pin header" H 1900 1700 40  0001 C CNN "Description"
	1    1650 2000
	-1   0    0    -1  
$EndComp
$Comp
L R R214
U 1 1 57114C7E
P 2450 2100
F 0 "R214" V 2370 2100 40  0000 C CNN
F 1 "N/F" V 2457 2101 40  0000 C CNN
F 2 "MyKiCadLibs-Footprints:SMD-0805" V 2380 2100 30  0001 C CNN
F 3 "" V 2370 2100 30  0000 C CNN
F 4 "100mW" V 2550 2100 40  0001 C CNN "Power"
F 5 "Thick or thin film resistor" V 2695 2100 40  0001 C CNN "Description"
F 6 "0805" V 2625 2100 40  0001 C CNN "Size"
F 7 "1%" V 2775 2100 40  0001 C CNN "Tolerance"
	1    2450 2100
	0    -1   1    0   
$EndComp
$Comp
L R R205
U 1 1 571151A6
P 2050 2400
F 0 "R205" V 1970 2400 40  0000 C CNN
F 1 "N/F" V 2057 2401 40  0000 C CNN
F 2 "MyKiCadLibs-Footprints:SMD-0805" V 1980 2400 30  0001 C CNN
F 3 "" V 1970 2400 30  0000 C CNN
F 4 "100mW" V 2150 2400 40  0001 C CNN "Power"
F 5 "Thick or thin film resistor" V 2295 2400 40  0001 C CNN "Description"
F 6 "0805" V 2225 2400 40  0001 C CNN "Size"
F 7 "1%" V 2375 2400 40  0001 C CNN "Tolerance"
	1    2050 2400
	1    0    0    1   
$EndComp
$Comp
L R R222
U 1 1 57115C3D
P 2850 3100
F 0 "R222" V 2800 3400 40  0000 C CNN
F 1 "0" V 2857 3101 40  0000 C CNN
F 2 "MyKiCadLibs-Footprints:SMD-0805" V 2780 3100 30  0001 C CNN
F 3 "" V 2770 3100 30  0000 C CNN
F 4 "100mW" V 2950 3100 40  0001 C CNN "Power"
F 5 "Thick or thin film resistor" V 3095 3100 40  0001 C CNN "Description"
F 6 "0805" V 3025 3100 40  0001 C CNN "Size"
F 7 "1%" V 3175 3100 40  0001 C CNN "Tolerance"
	1    2850 3100
	0    -1   1    0   
$EndComp
$Comp
L R R223
U 1 1 57115F44
P 2850 3300
F 0 "R223" V 2800 3600 40  0000 C CNN
F 1 "0" V 2857 3301 40  0000 C CNN
F 2 "MyKiCadLibs-Footprints:SMD-0805" V 2780 3300 30  0001 C CNN
F 3 "" V 2770 3300 30  0000 C CNN
F 4 "100mW" V 2950 3300 40  0001 C CNN "Power"
F 5 "Thick or thin film resistor" V 3095 3300 40  0001 C CNN "Description"
F 6 "0805" V 3025 3300 40  0001 C CNN "Size"
F 7 "1%" V 3175 3300 40  0001 C CNN "Tolerance"
	1    2850 3300
	0    -1   1    0   
$EndComp
$Comp
L R R224
U 1 1 57115FCD
P 2850 3500
F 0 "R224" V 2800 3800 40  0000 C CNN
F 1 "0" V 2857 3501 40  0000 C CNN
F 2 "MyKiCadLibs-Footprints:SMD-0805" V 2780 3500 30  0001 C CNN
F 3 "" V 2770 3500 30  0000 C CNN
F 4 "100mW" V 2950 3500 40  0001 C CNN "Power"
F 5 "Thick or thin film resistor" V 3095 3500 40  0001 C CNN "Description"
F 6 "0805" V 3025 3500 40  0001 C CNN "Size"
F 7 "1%" V 3175 3500 40  0001 C CNN "Tolerance"
	1    2850 3500
	0    -1   1    0   
$EndComp
$Comp
L R R225
U 1 1 57116055
P 2850 3700
F 0 "R225" V 2800 4000 40  0000 C CNN
F 1 "0" V 2857 3701 40  0000 C CNN
F 2 "MyKiCadLibs-Footprints:SMD-0805" V 2780 3700 30  0001 C CNN
F 3 "" V 2770 3700 30  0000 C CNN
F 4 "100mW" V 2950 3700 40  0001 C CNN "Power"
F 5 "Thick or thin film resistor" V 3095 3700 40  0001 C CNN "Description"
F 6 "0805" V 3025 3700 40  0001 C CNN "Size"
F 7 "1%" V 3175 3700 40  0001 C CNN "Tolerance"
	1    2850 3700
	0    -1   1    0   
$EndComp
$Comp
L R R201
U 1 1 57116699
P 2000 4000
F 0 "R201" V 1950 4300 40  0000 C CNN
F 1 "N/F" V 2007 4001 40  0000 C CNN
F 2 "MyKiCadLibs-Footprints:SMD-0805" V 1930 4000 30  0001 C CNN
F 3 "" V 1920 4000 30  0000 C CNN
F 4 "100mW" V 2100 4000 40  0001 C CNN "Power"
F 5 "Thick or thin film resistor" V 2245 4000 40  0001 C CNN "Description"
F 6 "0805" V 2175 4000 40  0001 C CNN "Size"
F 7 "1%" V 2325 4000 40  0001 C CNN "Tolerance"
	1    2000 4000
	1    0    0    1   
$EndComp
$Comp
L R R206
U 1 1 57116AF4
P 2150 4000
F 0 "R206" V 2100 4300 40  0000 C CNN
F 1 "N/F" V 2157 4001 40  0000 C CNN
F 2 "MyKiCadLibs-Footprints:SMD-0805" V 2080 4000 30  0001 C CNN
F 3 "" V 2070 4000 30  0000 C CNN
F 4 "100mW" V 2250 4000 40  0001 C CNN "Power"
F 5 "Thick or thin film resistor" V 2395 4000 40  0001 C CNN "Description"
F 6 "0805" V 2325 4000 40  0001 C CNN "Size"
F 7 "1%" V 2475 4000 40  0001 C CNN "Tolerance"
	1    2150 4000
	1    0    0    1   
$EndComp
$Comp
L R R207
U 1 1 57116B89
P 2300 4000
F 0 "R207" V 2250 4300 40  0000 C CNN
F 1 "N/F" V 2307 4001 40  0000 C CNN
F 2 "MyKiCadLibs-Footprints:SMD-0805" V 2230 4000 30  0001 C CNN
F 3 "" V 2220 4000 30  0000 C CNN
F 4 "100mW" V 2400 4000 40  0001 C CNN "Power"
F 5 "Thick or thin film resistor" V 2545 4000 40  0001 C CNN "Description"
F 6 "0805" V 2475 4000 40  0001 C CNN "Size"
F 7 "1%" V 2625 4000 40  0001 C CNN "Tolerance"
	1    2300 4000
	1    0    0    1   
$EndComp
$Comp
L R R215
U 1 1 57116C1D
P 2450 4000
F 0 "R215" V 2400 4300 40  0000 C CNN
F 1 "N/F" V 2457 4001 40  0000 C CNN
F 2 "MyKiCadLibs-Footprints:SMD-0805" V 2380 4000 30  0001 C CNN
F 3 "" V 2370 4000 30  0000 C CNN
F 4 "100mW" V 2550 4000 40  0001 C CNN "Power"
F 5 "Thick or thin film resistor" V 2695 4000 40  0001 C CNN "Description"
F 6 "0805" V 2625 4000 40  0001 C CNN "Size"
F 7 "1%" V 2775 4000 40  0001 C CNN "Tolerance"
	1    2450 4000
	1    0    0    1   
$EndComp
$Comp
L R R216
U 1 1 57117A13
P 2450 5050
F 0 "R216" V 2400 5350 40  0000 C CNN
F 1 "10k" V 2457 5051 40  0000 C CNN
F 2 "MyKiCadLibs-Footprints:SMD-0805" V 2380 5050 30  0001 C CNN
F 3 "" V 2370 5050 30  0000 C CNN
F 4 "100mW" V 2550 5050 40  0001 C CNN "Power"
F 5 "Thick or thin film resistor" V 2695 5050 40  0001 C CNN "Description"
F 6 "0805" V 2625 5050 40  0001 C CNN "Size"
F 7 "1%" V 2775 5050 40  0001 C CNN "Tolerance"
	1    2450 5050
	0    -1   1    0   
$EndComp
$Comp
L R R217
U 1 1 57117DC6
P 2450 5150
F 0 "R217" V 2400 5450 40  0000 C CNN
F 1 "10k" V 2457 5151 40  0000 C CNN
F 2 "MyKiCadLibs-Footprints:SMD-0805" V 2380 5150 30  0001 C CNN
F 3 "" V 2370 5150 30  0000 C CNN
F 4 "100mW" V 2550 5150 40  0001 C CNN "Power"
F 5 "Thick or thin film resistor" V 2695 5150 40  0001 C CNN "Description"
F 6 "0805" V 2625 5150 40  0001 C CNN "Size"
F 7 "1%" V 2775 5150 40  0001 C CNN "Tolerance"
	1    2450 5150
	0    -1   1    0   
$EndComp
$Comp
L R R218
U 1 1 57117E4A
P 2450 5250
F 0 "R218" V 2400 5550 40  0000 C CNN
F 1 "10k" V 2457 5251 40  0000 C CNN
F 2 "MyKiCadLibs-Footprints:SMD-0805" V 2380 5250 30  0001 C CNN
F 3 "" V 2370 5250 30  0000 C CNN
F 4 "100mW" V 2550 5250 40  0001 C CNN "Power"
F 5 "Thick or thin film resistor" V 2695 5250 40  0001 C CNN "Description"
F 6 "0805" V 2625 5250 40  0001 C CNN "Size"
F 7 "1%" V 2775 5250 40  0001 C CNN "Tolerance"
	1    2450 5250
	0    -1   1    0   
$EndComp
$Comp
L R R219
U 1 1 57117F9C
P 2450 5450
F 0 "R219" V 2400 5750 40  0000 C CNN
F 1 "0" V 2457 5451 40  0000 C CNN
F 2 "MyKiCadLibs-Footprints:SMD-0805" V 2380 5450 30  0001 C CNN
F 3 "" V 2370 5450 30  0000 C CNN
F 4 "100mW" V 2550 5450 40  0001 C CNN "Power"
F 5 "Thick or thin film resistor" V 2695 5450 40  0001 C CNN "Description"
F 6 "0805" V 2625 5450 40  0001 C CNN "Size"
F 7 "1%" V 2775 5450 40  0001 C CNN "Tolerance"
	1    2450 5450
	0    -1   1    0   
$EndComp
$Comp
L R R202
U 1 1 57118154
P 2000 5750
F 0 "R202" V 1950 6000 40  0000 C CNN
F 1 "N/F" V 2007 5751 40  0000 C CNN
F 2 "MyKiCadLibs-Footprints:SMD-0805" V 1930 5750 30  0001 C CNN
F 3 "" V 1920 5750 30  0000 C CNN
F 4 "100mW" V 2100 5750 40  0001 C CNN "Power"
F 5 "Thick or thin film resistor" V 2245 5750 40  0001 C CNN "Description"
F 6 "0805" V 2175 5750 40  0001 C CNN "Size"
F 7 "1%" V 2325 5750 40  0001 C CNN "Tolerance"
	1    2000 5750
	1    0    0    1   
$EndComp
Wire Wire Line
	5200 3700 5400 3700
Wire Wire Line
	5200 3600 5200 3750
Wire Wire Line
	4950 3600 5200 3600
Wire Wire Line
	5250 3300 4950 3300
Wire Wire Line
	4950 3400 5250 3400
Wire Wire Line
	4950 3500 5250 3500
Connection ~ 5200 3700
$Comp
L R R208
U 1 1 5711A110
P 5500 3300
F 0 "R208" V 5450 3600 40  0000 C CNN
F 1 "10k" V 5507 3301 40  0000 C CNN
F 2 "MyKiCadLibs-Footprints:SMD-0805" V 5430 3300 30  0001 C CNN
F 3 "" V 5420 3300 30  0000 C CNN
F 4 "100mW" V 5600 3300 40  0001 C CNN "Power"
F 5 "Thick or thin film resistor" V 5745 3300 40  0001 C CNN "Description"
F 6 "0805" V 5675 3300 40  0001 C CNN "Size"
F 7 "1%" V 5825 3300 40  0001 C CNN "Tolerance"
	1    5500 3300
	0    -1   1    0   
$EndComp
$Comp
L R R209
U 1 1 5711A1AE
P 5500 3400
F 0 "R209" V 5450 3700 40  0000 C CNN
F 1 "10k" V 5507 3401 40  0000 C CNN
F 2 "MyKiCadLibs-Footprints:SMD-0805" V 5430 3400 30  0001 C CNN
F 3 "" V 5420 3400 30  0000 C CNN
F 4 "100mW" V 5600 3400 40  0001 C CNN "Power"
F 5 "Thick or thin film resistor" V 5745 3400 40  0001 C CNN "Description"
F 6 "0805" V 5675 3400 40  0001 C CNN "Size"
F 7 "1%" V 5825 3400 40  0001 C CNN "Tolerance"
	1    5500 3400
	0    -1   1    0   
$EndComp
$Comp
L R R210
U 1 1 5711A21D
P 5500 3500
F 0 "R210" V 5450 3800 40  0000 C CNN
F 1 "10k" V 5507 3501 40  0000 C CNN
F 2 "MyKiCadLibs-Footprints:SMD-0805" V 5430 3500 30  0001 C CNN
F 3 "" V 5420 3500 30  0000 C CNN
F 4 "100mW" V 5600 3500 40  0001 C CNN "Power"
F 5 "Thick or thin film resistor" V 5745 3500 40  0001 C CNN "Description"
F 6 "0805" V 5675 3500 40  0001 C CNN "Size"
F 7 "1%" V 5825 3500 40  0001 C CNN "Tolerance"
	1    5500 3500
	0    -1   1    0   
$EndComp
$Comp
L R R211
U 1 1 5711A28F
P 5500 4700
F 0 "R211" V 5450 5000 40  0000 C CNN
F 1 "10k" V 5507 4701 40  0000 C CNN
F 2 "MyKiCadLibs-Footprints:SMD-0805" V 5430 4700 30  0001 C CNN
F 3 "" V 5420 4700 30  0000 C CNN
F 4 "100mW" V 5600 4700 40  0001 C CNN "Power"
F 5 "Thick or thin film resistor" V 5745 4700 40  0001 C CNN "Description"
F 6 "0805" V 5675 4700 40  0001 C CNN "Size"
F 7 "1%" V 5825 4700 40  0001 C CNN "Tolerance"
	1    5500 4700
	0    -1   1    0   
$EndComp
$Comp
L R R212
U 1 1 5711A330
P 5500 4800
F 0 "R212" V 5450 5100 40  0000 C CNN
F 1 "10k" V 5507 4801 40  0000 C CNN
F 2 "MyKiCadLibs-Footprints:SMD-0805" V 5430 4800 30  0001 C CNN
F 3 "" V 5420 4800 30  0000 C CNN
F 4 "100mW" V 5600 4800 40  0001 C CNN "Power"
F 5 "Thick or thin film resistor" V 5745 4800 40  0001 C CNN "Description"
F 6 "0805" V 5675 4800 40  0001 C CNN "Size"
F 7 "1%" V 5825 4800 40  0001 C CNN "Tolerance"
	1    5500 4800
	0    -1   1    0   
$EndComp
$Comp
L R R213
U 1 1 5711A3A8
P 5500 4900
F 0 "R213" V 5450 5200 40  0000 C CNN
F 1 "10k" V 5507 4901 40  0000 C CNN
F 2 "MyKiCadLibs-Footprints:SMD-0805" V 5430 4900 30  0001 C CNN
F 3 "" V 5420 4900 30  0000 C CNN
F 4 "100mW" V 5600 4900 40  0001 C CNN "Power"
F 5 "Thick or thin film resistor" V 5745 4900 40  0001 C CNN "Description"
F 6 "0805" V 5675 4900 40  0001 C CNN "Size"
F 7 "1%" V 5825 4900 40  0001 C CNN "Tolerance"
	1    5500 4900
	0    -1   1    0   
$EndComp
$Comp
L R R220
U 1 1 5711A423
P 5650 3700
F 0 "R220" V 5600 3950 40  0000 C CNN
F 1 "0" V 5657 3701 40  0000 C CNN
F 2 "MyKiCadLibs-Footprints:SMD-0805" V 5580 3700 30  0001 C CNN
F 3 "" V 5570 3700 30  0000 C CNN
F 4 "100mW" V 5750 3700 40  0001 C CNN "Power"
F 5 "Thick or thin film resistor" V 5895 3700 40  0001 C CNN "Description"
F 6 "0805" V 5825 3700 40  0001 C CNN "Size"
F 7 "1%" V 5975 3700 40  0001 C CNN "Tolerance"
	1    5650 3700
	0    -1   1    0   
$EndComp
$Comp
L R R221
U 1 1 5711A4E5
P 5650 5100
F 0 "R221" V 5600 5350 40  0000 C CNN
F 1 "0" V 5657 5101 40  0000 C CNN
F 2 "MyKiCadLibs-Footprints:SMD-0805" V 5580 5100 30  0001 C CNN
F 3 "" V 5570 5100 30  0000 C CNN
F 4 "100mW" V 5750 5100 40  0001 C CNN "Power"
F 5 "Thick or thin film resistor" V 5895 5100 40  0001 C CNN "Description"
F 6 "0805" V 5825 5100 40  0001 C CNN "Size"
F 7 "1%" V 5975 5100 40  0001 C CNN "Tolerance"
	1    5650 5100
	0    -1   1    0   
$EndComp
$Comp
L R R203
U 1 1 5711A59C
P 5200 4000
F 0 "R203" V 5150 4250 40  0000 C CNN
F 1 "N/F" V 5207 4001 40  0000 C CNN
F 2 "MyKiCadLibs-Footprints:SMD-0805" V 5130 4000 30  0001 C CNN
F 3 "" V 5120 4000 30  0000 C CNN
F 4 "100mW" V 5300 4000 40  0001 C CNN "Power"
F 5 "Thick or thin film resistor" V 5445 4000 40  0001 C CNN "Description"
F 6 "0805" V 5375 4000 40  0001 C CNN "Size"
F 7 "1%" V 5525 4000 40  0001 C CNN "Tolerance"
	1    5200 4000
	1    0    0    1   
$EndComp
$Comp
L R R204
U 1 1 5711A670
P 5200 5400
F 0 "R204" V 5150 5650 40  0000 C CNN
F 1 "N/F" V 5207 5401 40  0000 C CNN
F 2 "MyKiCadLibs-Footprints:SMD-0805" V 5130 5400 30  0001 C CNN
F 3 "" V 5120 5400 30  0000 C CNN
F 4 "100mW" V 5300 5400 40  0001 C CNN "Power"
F 5 "Thick or thin film resistor" V 5445 5400 40  0001 C CNN "Description"
F 6 "0805" V 5375 5400 40  0001 C CNN "Size"
F 7 "1%" V 5525 5400 40  0001 C CNN "Tolerance"
	1    5200 5400
	1    0    0    1   
$EndComp
$Comp
L R R226
U 1 1 5711ACC7
P 9000 3500
F 0 "R226" V 8950 3800 40  0000 C CNN
F 1 "75" V 9007 3501 40  0000 C CNN
F 2 "MyKiCadLibs-Footprints:SMD-0805" V 8930 3500 30  0001 C CNN
F 3 "" V 8920 3500 30  0000 C CNN
F 4 "100mW" V 9100 3500 40  0001 C CNN "Power"
F 5 "Thick or thin film resistor" V 9245 3500 40  0001 C CNN "Description"
F 6 "0805" V 9175 3500 40  0001 C CNN "Size"
F 7 "1%" V 9325 3500 40  0001 C CNN "Tolerance"
	1    9000 3500
	0    -1   1    0   
$EndComp
$Comp
L R R227
U 1 1 5711AEF7
P 9000 3600
F 0 "R227" V 8950 3900 40  0000 C CNN
F 1 "0" V 9007 3601 40  0000 C CNN
F 2 "MyKiCadLibs-Footprints:SMD-0805" V 8930 3600 30  0001 C CNN
F 3 "" V 8920 3600 30  0000 C CNN
F 4 "100mW" V 9100 3600 40  0001 C CNN "Power"
F 5 "Thick or thin film resistor" V 9245 3600 40  0001 C CNN "Description"
F 6 "0805" V 9175 3600 40  0001 C CNN "Size"
F 7 "1%" V 9325 3600 40  0001 C CNN "Tolerance"
	1    9000 3600
	0    -1   1    0   
$EndComp
$Comp
L R R228
U 1 1 5711AF76
P 9000 3700
F 0 "R228" V 8950 4000 40  0000 C CNN
F 1 "0" V 9007 3701 40  0000 C CNN
F 2 "MyKiCadLibs-Footprints:SMD-0805" V 8930 3700 30  0001 C CNN
F 3 "" V 8920 3700 30  0000 C CNN
F 4 "100mW" V 9100 3700 40  0001 C CNN "Power"
F 5 "Thick or thin film resistor" V 9245 3700 40  0001 C CNN "Description"
F 6 "0805" V 9175 3700 40  0001 C CNN "Size"
F 7 "1%" V 9325 3700 40  0001 C CNN "Tolerance"
	1    9000 3700
	0    -1   1    0   
$EndComp
$Comp
L R R229
U 1 1 5711AFF4
P 9000 3800
F 0 "R229" V 8950 4100 40  0000 C CNN
F 1 "0" V 9007 3801 40  0000 C CNN
F 2 "MyKiCadLibs-Footprints:SMD-0805" V 8930 3800 30  0001 C CNN
F 3 "" V 8920 3800 30  0000 C CNN
F 4 "100mW" V 9100 3800 40  0001 C CNN "Power"
F 5 "Thick or thin film resistor" V 9245 3800 40  0001 C CNN "Description"
F 6 "0805" V 9175 3800 40  0001 C CNN "Size"
F 7 "1%" V 9325 3800 40  0001 C CNN "Tolerance"
	1    9000 3800
	0    -1   1    0   
$EndComp
$Comp
L R R230
U 1 1 5711B075
P 9000 3900
F 0 "R230" V 8950 4200 40  0000 C CNN
F 1 "0" V 9007 3901 40  0000 C CNN
F 2 "MyKiCadLibs-Footprints:SMD-0805" V 8930 3900 30  0001 C CNN
F 3 "" V 8920 3900 30  0000 C CNN
F 4 "100mW" V 9100 3900 40  0001 C CNN "Power"
F 5 "Thick or thin film resistor" V 9245 3900 40  0001 C CNN "Description"
F 6 "0805" V 9175 3900 40  0001 C CNN "Size"
F 7 "1%" V 9325 3900 40  0001 C CNN "Tolerance"
	1    9000 3900
	0    -1   1    0   
$EndComp
$Comp
L R R231
U 1 1 5711B0F9
P 9000 4000
F 0 "R231" V 8950 4300 40  0000 C CNN
F 1 "0" V 9007 4001 40  0000 C CNN
F 2 "MyKiCadLibs-Footprints:SMD-0805" V 8930 4000 30  0001 C CNN
F 3 "" V 8920 4000 30  0000 C CNN
F 4 "100mW" V 9100 4000 40  0001 C CNN "Power"
F 5 "Thick or thin film resistor" V 9245 4000 40  0001 C CNN "Description"
F 6 "0805" V 9175 4000 40  0001 C CNN "Size"
F 7 "1%" V 9325 4000 40  0001 C CNN "Tolerance"
	1    9000 4000
	0    -1   1    0   
$EndComp
Text Notes 8100 3200 0    60   ~ 0
For software control\nSee notes on page 5 for use
Text Notes 1200 900  0    118  ~ 0
Connectors
$EndSCHEMATC
